…
This means that we can concentrate on checking taxon related issues.

``` r
taxon_issues <- ant_phipoda %>% 
  filter(str_detect(str_to_lower(issue), "taxon")) %>% 
  select(scientificNameID:verbatimScientificName) %>% 
  distinct()

taxon_issues
```

    ## # A tibble: 45 × 34
    ##    scientificNameID       scientificName kingdom phylum class order family genus
    ##    <chr>                  <chr>          <chr>   <chr>  <chr> <chr> <chr>  <chr>
    ##  1 <NA>                   Gammaropsis L… Animal… Arthr… Mala… Amph… Photi… Gamm…
    ##  2 <NA>                   incertae sedis incert… <NA>   <NA>  <NA>  <NA>   <NA> 
    ##  3 <NA>                   incertae sedis incert… <NA>   <NA>  <NA>  <NA>   <NA> 
    ##  4 <NA>                   incertae sedis incert… <NA>   <NA>  <NA>  <NA>   <NA> 
    ##  5 <NA>                   incertae sedis incert… <NA>   <NA>  <NA>  <NA>   <NA> 
    ##  6 <NA>                   incertae sedis incert… <NA>   <NA>  <NA>  <NA>   <NA> 
    ##  7 <NA>                   incertae sedis incert… <NA>   <NA>  <NA>  <NA>   <NA> 
    ##  8 <NA>                   incertae sedis incert… <NA>   <NA>  <NA>  <NA>   <NA> 
    ##  9 <NA>                   incertae sedis incert… <NA>   <NA>  <NA>  <NA>   <NA> 
    ## 10 urn:lsid:marinespecie… Clausiliidae   Animal… Mollu… Gast… Styl… Claus… <NA> 
    ## # ℹ 35 more rows
    ## # ℹ 26 more variables: genericName <chr>, specificEpithet <chr>,
    ## #   taxonRank <chr>, vernacularName <chr>, taxonomicStatus <chr>,
    ## #   datasetKey <chr>, publishingCountry <chr>, lastInterpreted <dttm>,
    ## #   depth <dbl>, depthAccuracy <dbl>, distanceFromCentroidInMeters <dbl>,
    ## #   issue <chr>, hasCoordinate <lgl>, hasGeospatialIssues <lgl>,
    ## #   taxonKey <dbl>, acceptedTaxonKey <dbl>, kingdomKey <dbl>, …

Using the `verbatimScientificName` column, we can use the `rgbif`
package to search for potential matches.

``` r
taxon_matches <- name_backbone_checklist(taxon_issues$verbatimScientificName)
taxon_matches
```

    ## # A tibble: 45 × 25
    ##    usageKey scientificName       canonicalName rank  status confidence matchType
    ##       <int> <chr>                <chr>         <chr> <chr>       <int> <chr>    
    ##  1  2218083 Gammaropsis Lilljeb… Gammaropsis   GENUS ACCEP…         94 HIGHERRA…
    ##  2       NA <NA>                 <NA>          <NA>  <NA>          100 NONE     
    ##  3       NA <NA>                 <NA>          <NA>  <NA>          100 NONE     
    ##  4       NA <NA>                 <NA>          <NA>  <NA>          100 NONE     
    ##  5       NA <NA>                 <NA>          <NA>  <NA>          100 NONE     
    ##  6       NA <NA>                 <NA>          <NA>  <NA>          100 NONE     
    ##  7       NA <NA>                 <NA>          <NA>  <NA>          100 NONE     
    ##  8       NA <NA>                 <NA>          <NA>  <NA>          100 NONE     
    ##  9       NA <NA>                 <NA>          <NA>  <NA>          100 NONE     
    ## 10  4596239 Robusta O.Boettger,… Robusta       GENUS SYNON…         95 EXACT    
    ## # ℹ 35 more rows
    ## # ℹ 18 more variables: kingdom <chr>, phylum <chr>, order <chr>, family <chr>,
    ## #   genus <chr>, kingdomKey <int>, phylumKey <int>, classKey <int>,
    ## #   orderKey <int>, familyKey <int>, genusKey <int>, synonym <lgl>,
    ## #   class <chr>, acceptedUsageKey <int>, species <chr>, speciesKey <int>,
    ## #   verbatim_name <chr>, verbatim_index <dbl>
…
